
{ "_id": "594153995a2f9a5e973425d0",
    "title": "Producto 3",
    "price": 20,
    "provider": 2,
    "rating": 4,
    "img": "''",
    "__v": 0,
    "downloads": 64,
    "extension": "csv",
    "size": 18,
    "ratings":
     { "testUser": 5,
       "idUsuario2": 4,
       "idUsuario8": 6,
       "idUsuario4": 4,
       "idUsuario7": 6,
       "idUsuario6": 8 },
    "tags": [ ] }